^C:\USERS\THAMB\ONEDRIVE\DESKTOP\FACULTATE\AN-3\PG\LAB\LAB5\LAB5\LAB5\CAMERA.CPP|C:\USERS\THAMB\ONEDRIVE\DESKTOP\FACULTATE\AN-3\PG\LAB\LAB5\LAB5\LAB5\MAIN.CPP|C:\USERS\THAMB\ONEDRIVE\DESKTOP\FACULTATE\AN-3\PG\LAB\LAB5\LAB5\LAB5\SHADER.CPP
C:\USERS\THAMB\ONEDRIVE\DESKTOP\FACULTATE\AN-3\PG\LAB\LAB5\LAB5\LAB5\X64\DEBUG\VC141.PDB
C:\USERS\THAMB\ONEDRIVE\DESKTOP\FACULTATE\AN-3\PG\LAB\LAB5\LAB5\LAB5\X64\DEBUG\VC141.IDB
C:\USERS\THAMB\ONEDRIVE\DESKTOP\FACULTATE\AN-3\PG\LAB\LAB5\LAB5\LAB5\X64\DEBUG\SHADER.OBJ
C:\USERS\THAMB\ONEDRIVE\DESKTOP\FACULTATE\AN-3\PG\LAB\LAB5\LAB5\LAB5\X64\DEBUG\MAIN.OBJ
C:\USERS\THAMB\ONEDRIVE\DESKTOP\FACULTATE\AN-3\PG\LAB\LAB5\LAB5\LAB5\X64\DEBUG\CAMERA.OBJ
^C:\USERS\THAMB\ONEDRIVE\DESKTOP\FACULTATE\AN-3\PG\LAB\LAB5\LAB5\LAB5\CAMERA.CPP
C:\USERS\THAMB\ONEDRIVE\DESKTOP\FACULTATE\AN-3\PG\LAB\LAB5\LAB5\LAB5\X64\DEBUG\VC141.PDB
^C:\USERS\THAMB\ONEDRIVE\DESKTOP\FACULTATE\AN-3\PG\LAB\LAB5\LAB5\LAB5\SHADER.CPP
C:\USERS\THAMB\ONEDRIVE\DESKTOP\FACULTATE\AN-3\PG\LAB\LAB5\LAB5\LAB5\X64\DEBUG\VC141.PDB
^C:\USERS\THAMB\ONEDRIVE\DESKTOP\FACULTATE\AN-3\PG\LAB\LAB5\LAB5\LAB5\MAIN.CPP
C:\USERS\THAMB\ONEDRIVE\DESKTOP\FACULTATE\AN-3\PG\LAB\LAB5\LAB5\LAB5\X64\DEBUG\VC141.PDB
C:\USERS\THAMB\ONEDRIVE\DESKTOP\FACULTATE\AN-3\PG\LAB\LAB5\LAB5\LAB5\X64\DEBUG\VC141.IDB
C:\USERS\THAMB\ONEDRIVE\DESKTOP\FACULTATE\AN-3\PG\LAB\LAB5\LAB5\LAB5\X64\DEBUG\MAIN.OBJ
