# Blender MTL File: 'None'
# Material Count: 2

newmtl rocks_texture
Ns 179.999996
Ka 1.000000 1.000000 1.000000
Kd 1.000000 1.000000 1.000000
Ks 0.500000 0.500000 0.500000
Ke 0.000000 0.000000 0.000000
Ni 1.450000
d 1.000000
illum 2
map_Bump Textures\\rocks_normal.jpg
map_Kd Textures\\rocks_diffuse.jpg
map_Ks Textures\\rocks_specular.jpg

newmtl woods_and_ground_texture
Ns 179.999996
Ka 1.000000 1.000000 1.000000
Kd 1.000000 1.000000 1.000000
Ks 0.500000 0.500000 0.500000
Ke 0.500000 0.500000 0.500000
Ni 1.450000
d 1.000000
illum 2
map_Bump Textures\\woodsground_normal.jpg
map_Kd Textures\\woodsground_diffuse.jpg
map_Ke Textures\\woodsground_glow.jpg
map_Ks Textures\\woodsground_specular.jpg
